2020-12-25 07:30:38,298 ERROR: Exception on /index [GET] [in d:\hg\ssc\brk\app_brk\venv\lib\site-packages\flask\app.py:1891]
Traceback (most recent call last):
  File "d:\hg\ssc\brk\app_brk\venv\lib\site-packages\flask\app.py", line 2447, in wsgi_app
    response = self.full_dispatch_request()
  File "d:\hg\ssc\brk\app_brk\venv\lib\site-packages\flask\app.py", line 1952, in full_dispatch_request
    rv = self.handle_user_exception(e)
  File "d:\hg\ssc\brk\app_brk\venv\lib\site-packages\flask\app.py", line 1821, in handle_user_exception
    reraise(exc_type, exc_value, tb)
  File "d:\hg\ssc\brk\app_brk\venv\lib\site-packages\flask\_compat.py", line 39, in reraise
    raise value
  File "d:\hg\ssc\brk\app_brk\venv\lib\site-packages\flask\app.py", line 1950, in full_dispatch_request
    rv = self.dispatch_request()
  File "d:\hg\ssc\brk\app_brk\venv\lib\site-packages\flask\app.py", line 1936, in dispatch_request
    return self.view_functions[rule.endpoint](**req.view_args)
  File "d:\hg\ssc\brk\app_brk\venv\lib\site-packages\flask_login\utils.py", line 272, in decorated_view
    return func(*args, **kwargs)
  File "D:\HG\SSC\BRK\app_brk\app\routes.py", line 29, in index
    return render_template("index.html", title='Живая коллекция', columns=columns, items=items, form=form)
  File "d:\hg\ssc\brk\app_brk\venv\lib\site-packages\flask\templating.py", line 137, in render_template
    return _render(
  File "d:\hg\ssc\brk\app_brk\venv\lib\site-packages\flask\templating.py", line 120, in _render
    rv = template.render(context)
  File "d:\hg\ssc\brk\app_brk\venv\lib\site-packages\jinja2\environment.py", line 1090, in render
    self.environment.handle_exception()
  File "d:\hg\ssc\brk\app_brk\venv\lib\site-packages\jinja2\environment.py", line 832, in handle_exception
    reraise(*rewrite_traceback_stack(source=source))
  File "d:\hg\ssc\brk\app_brk\venv\lib\site-packages\jinja2\_compat.py", line 28, in reraise
    raise value.with_traceback(tb)
  File "D:\HG\SSC\BRK\app_brk\app\templates\index.html", line 2, in top-level template code
    {% extends "base.html" %}
  File "D:\HG\SSC\BRK\app_brk\app\templates\base.html", line 2, in top-level template code
    {% extends 'bootstrap/base.html' %}
  File "d:\hg\ssc\brk\app_brk\venv\lib\site-packages\flask_bootstrap\templates\bootstrap\base.html", line 1, in top-level template code
    {% block doc -%}
  File "d:\hg\ssc\brk\app_brk\venv\lib\site-packages\flask_bootstrap\templates\bootstrap\base.html", line 4, in block "doc"
    {%- block html %}
  File "d:\hg\ssc\brk\app_brk\venv\lib\site-packages\flask_bootstrap\templates\bootstrap\base.html", line 20, in block "html"
    {% block body -%}
  File "d:\hg\ssc\brk\app_brk\venv\lib\site-packages\flask_bootstrap\templates\bootstrap\base.html", line 23, in block "body"
    {% block content -%}
  File "D:\HG\SSC\BRK\app_brk\app\templates\index.html", line 14, in block "content"
    <p>{{ form.submit() }}</p>
jinja2.exceptions.UndefinedError: 'app.forms.Table_form_live_collection object' has no attribute 'submit'
2020-12-25 07:31:38,006 INFO: BRK startup [in D:\HG\SSC\BRK\app_brk\app\__init__.py:47]
2020-12-25 07:32:19,425 INFO: BRK startup [in D:\HG\SSC\BRK\app_brk\app\__init__.py:47]
2020-12-25 07:33:10,236 INFO: BRK startup [in D:\HG\SSC\BRK\app_brk\app\__init__.py:47]
2020-12-25 07:37:10,714 INFO: BRK startup [in D:\HG\SSC\BRK\app_brk\app\__init__.py:47]
2020-12-25 07:37:14,025 ERROR: Exception on /cryobank [GET] [in d:\hg\ssc\brk\app_brk\venv\lib\site-packages\flask\app.py:1891]
Traceback (most recent call last):
  File "d:\hg\ssc\brk\app_brk\venv\lib\site-packages\flask\app.py", line 2447, in wsgi_app
    response = self.full_dispatch_request()
  File "d:\hg\ssc\brk\app_brk\venv\lib\site-packages\flask\app.py", line 1952, in full_dispatch_request
    rv = self.handle_user_exception(e)
  File "d:\hg\ssc\brk\app_brk\venv\lib\site-packages\flask\app.py", line 1821, in handle_user_exception
    reraise(exc_type, exc_value, tb)
  File "d:\hg\ssc\brk\app_brk\venv\lib\site-packages\flask\_compat.py", line 39, in reraise
    raise value
  File "d:\hg\ssc\brk\app_brk\venv\lib\site-packages\flask\app.py", line 1950, in full_dispatch_request
    rv = self.dispatch_request()
  File "d:\hg\ssc\brk\app_brk\venv\lib\site-packages\flask\app.py", line 1936, in dispatch_request
    return self.view_functions[rule.endpoint](**req.view_args)
  File "d:\hg\ssc\brk\app_brk\venv\lib\site-packages\flask_login\utils.py", line 272, in decorated_view
    return func(*args, **kwargs)
  File "D:\HG\SSC\BRK\app_brk\app\routes.py", line 42, in cryobank
    return render_template("index.html", title='Криобанк', columns=columns, items=items)
  File "d:\hg\ssc\brk\app_brk\venv\lib\site-packages\flask\templating.py", line 137, in render_template
    return _render(
  File "d:\hg\ssc\brk\app_brk\venv\lib\site-packages\flask\templating.py", line 120, in _render
    rv = template.render(context)
  File "d:\hg\ssc\brk\app_brk\venv\lib\site-packages\jinja2\environment.py", line 1090, in render
    self.environment.handle_exception()
  File "d:\hg\ssc\brk\app_brk\venv\lib\site-packages\jinja2\environment.py", line 832, in handle_exception
    reraise(*rewrite_traceback_stack(source=source))
  File "d:\hg\ssc\brk\app_brk\venv\lib\site-packages\jinja2\_compat.py", line 28, in reraise
    raise value.with_traceback(tb)
  File "D:\HG\SSC\BRK\app_brk\app\templates\index.html", line 2, in top-level template code
    {% extends "base.html" %}
  File "D:\HG\SSC\BRK\app_brk\app\templates\base.html", line 2, in top-level template code
    {% extends 'bootstrap/base.html' %}
  File "d:\hg\ssc\brk\app_brk\venv\lib\site-packages\flask_bootstrap\templates\bootstrap\base.html", line 1, in top-level template code
    {% block doc -%}
  File "d:\hg\ssc\brk\app_brk\venv\lib\site-packages\flask_bootstrap\templates\bootstrap\base.html", line 4, in block "doc"
    {%- block html %}
  File "d:\hg\ssc\brk\app_brk\venv\lib\site-packages\flask_bootstrap\templates\bootstrap\base.html", line 20, in block "html"
    {% block body -%}
  File "d:\hg\ssc\brk\app_brk\venv\lib\site-packages\flask_bootstrap\templates\bootstrap\base.html", line 23, in block "body"
    {% block content -%}
  File "D:\HG\SSC\BRK\app_brk\app\templates\index.html", line 14, in block "content"
    <p>{{ form.table() }}</p>
  File "d:\hg\ssc\brk\app_brk\venv\lib\site-packages\jinja2\environment.py", line 471, in getattr
    return getattr(obj, attribute)
jinja2.exceptions.UndefinedError: 'form' is undefined
2020-12-25 07:44:38,504 INFO: BRK startup [in D:\HG\SSC\BRK\app_brk\app\__init__.py:47]
2020-12-25 07:44:39,716 ERROR: Exception on /index [GET] [in d:\hg\ssc\brk\app_brk\venv\lib\site-packages\flask\app.py:1891]
Traceback (most recent call last):
  File "d:\hg\ssc\brk\app_brk\venv\lib\site-packages\flask\app.py", line 2447, in wsgi_app
    response = self.full_dispatch_request()
  File "d:\hg\ssc\brk\app_brk\venv\lib\site-packages\flask\app.py", line 1952, in full_dispatch_request
    rv = self.handle_user_exception(e)
  File "d:\hg\ssc\brk\app_brk\venv\lib\site-packages\flask\app.py", line 1821, in handle_user_exception
    reraise(exc_type, exc_value, tb)
  File "d:\hg\ssc\brk\app_brk\venv\lib\site-packages\flask\_compat.py", line 39, in reraise
    raise value
  File "d:\hg\ssc\brk\app_brk\venv\lib\site-packages\flask\app.py", line 1950, in full_dispatch_request
    rv = self.dispatch_request()
  File "d:\hg\ssc\brk\app_brk\venv\lib\site-packages\flask\app.py", line 1936, in dispatch_request
    return self.view_functions[rule.endpoint](**req.view_args)
  File "d:\hg\ssc\brk\app_brk\venv\lib\site-packages\flask_login\utils.py", line 272, in decorated_view
    return func(*args, **kwargs)
  File "D:\HG\SSC\BRK\app_brk\app\routes.py", line 25, in index
    return render_template("index.html", title='Живая коллекция', columns=columns, items=items)
  File "d:\hg\ssc\brk\app_brk\venv\lib\site-packages\flask\templating.py", line 137, in render_template
    return _render(
  File "d:\hg\ssc\brk\app_brk\venv\lib\site-packages\flask\templating.py", line 120, in _render
    rv = template.render(context)
  File "d:\hg\ssc\brk\app_brk\venv\lib\site-packages\jinja2\environment.py", line 1090, in render
    self.environment.handle_exception()
  File "d:\hg\ssc\brk\app_brk\venv\lib\site-packages\jinja2\environment.py", line 832, in handle_exception
    reraise(*rewrite_traceback_stack(source=source))
  File "d:\hg\ssc\brk\app_brk\venv\lib\site-packages\jinja2\_compat.py", line 28, in reraise
    raise value.with_traceback(tb)
  File "D:\HG\SSC\BRK\app_brk\app\templates\index.html", line 2, in top-level template code
    {% extends "base.html" %}
  File "D:\HG\SSC\BRK\app_brk\app\templates\base.html", line 2, in top-level template code
    {% extends 'bootstrap/base.html' %}
  File "d:\hg\ssc\brk\app_brk\venv\lib\site-packages\flask_bootstrap\templates\bootstrap\base.html", line 1, in top-level template code
    {% block doc -%}
  File "d:\hg\ssc\brk\app_brk\venv\lib\site-packages\flask_bootstrap\templates\bootstrap\base.html", line 4, in block "doc"
    {%- block html %}
  File "d:\hg\ssc\brk\app_brk\venv\lib\site-packages\flask_bootstrap\templates\bootstrap\base.html", line 20, in block "html"
    {% block body -%}
  File "d:\hg\ssc\brk\app_brk\venv\lib\site-packages\flask_bootstrap\templates\bootstrap\base.html", line 23, in block "body"
    {% block content -%}
  File "D:\HG\SSC\BRK\app_brk\app\templates\index.html", line 13, in block "content"
    <a href="{{ url_for('download', filename=table.xlsx) }}">Скачать таблицу</a>
  File "d:\hg\ssc\brk\app_brk\venv\lib\site-packages\jinja2\environment.py", line 471, in getattr
    return getattr(obj, attribute)
jinja2.exceptions.UndefinedError: 'table' is undefined
2020-12-25 07:46:33,038 INFO: BRK startup [in D:\HG\SSC\BRK\app_brk\app\__init__.py:47]
