2020-12-25 06:49:08,969 ERROR: Exception on /index [GET] [in d:\hg\ssc\brk\app_brk\venv\lib\site-packages\flask\app.py:1891]
Traceback (most recent call last):
  File "d:\hg\ssc\brk\app_brk\venv\lib\site-packages\sqlalchemy\engine\base.py", line 1005, in execute
    meth = object_._execute_on_connection
AttributeError: 'ResultProxy' object has no attribute '_execute_on_connection'

The above exception was the direct cause of the following exception:

Traceback (most recent call last):
  File "d:\hg\ssc\brk\app_brk\venv\lib\site-packages\flask\app.py", line 2447, in wsgi_app
    response = self.full_dispatch_request()
  File "d:\hg\ssc\brk\app_brk\venv\lib\site-packages\flask\app.py", line 1952, in full_dispatch_request
    rv = self.handle_user_exception(e)
  File "d:\hg\ssc\brk\app_brk\venv\lib\site-packages\flask\app.py", line 1821, in handle_user_exception
    reraise(exc_type, exc_value, tb)
  File "d:\hg\ssc\brk\app_brk\venv\lib\site-packages\flask\_compat.py", line 39, in reraise
    raise value
  File "d:\hg\ssc\brk\app_brk\venv\lib\site-packages\flask\app.py", line 1950, in full_dispatch_request
    rv = self.dispatch_request()
  File "d:\hg\ssc\brk\app_brk\venv\lib\site-packages\flask\app.py", line 1936, in dispatch_request
    return self.view_functions[rule.endpoint](**req.view_args)
  File "d:\hg\ssc\brk\app_brk\venv\lib\site-packages\flask_login\utils.py", line 272, in decorated_view
    return func(*args, **kwargs)
  File "D:\HG\SSC\BRK\app_brk\app\routes.py", line 25, in index
    df = pd.read_sql(query, engine)
  File "d:\hg\ssc\brk\app_brk\venv\lib\site-packages\pandas\io\sql.py", line 509, in read_sql
    return pandas_sql.read_query(
  File "d:\hg\ssc\brk\app_brk\venv\lib\site-packages\pandas\io\sql.py", line 1295, in read_query
    result = self.execute(*args)
  File "d:\hg\ssc\brk\app_brk\venv\lib\site-packages\pandas\io\sql.py", line 1161, in execute
    return self.connectable.execution_options(no_parameters=True).execute(
  File "d:\hg\ssc\brk\app_brk\venv\lib\site-packages\sqlalchemy\engine\base.py", line 2235, in execute
    return connection.execute(statement, *multiparams, **params)
  File "d:\hg\ssc\brk\app_brk\venv\lib\site-packages\sqlalchemy\engine\base.py", line 1007, in execute
    util.raise_(
  File "d:\hg\ssc\brk\app_brk\venv\lib\site-packages\sqlalchemy\util\compat.py", line 182, in raise_
    raise exception
sqlalchemy.exc.ObjectNotExecutableError: Not an executable object: <sqlalchemy.engine.result.ResultProxy object at 0x000002179A617E20>
2020-12-25 06:51:16,353 INFO: BRK startup [in D:\HG\SSC\BRK\app_brk\app\__init__.py:47]
2020-12-25 06:52:14,941 INFO: BRK startup [in D:\HG\SSC\BRK\app_brk\app\__init__.py:47]
2020-12-25 06:52:18,022 ERROR: Exception on /index [GET] [in d:\hg\ssc\brk\app_brk\venv\lib\site-packages\flask\app.py:1891]
Traceback (most recent call last):
  File "d:\hg\ssc\brk\app_brk\venv\lib\site-packages\flask\app.py", line 2447, in wsgi_app
    response = self.full_dispatch_request()
  File "d:\hg\ssc\brk\app_brk\venv\lib\site-packages\flask\app.py", line 1952, in full_dispatch_request
    rv = self.handle_user_exception(e)
  File "d:\hg\ssc\brk\app_brk\venv\lib\site-packages\flask\app.py", line 1821, in handle_user_exception
    reraise(exc_type, exc_value, tb)
  File "d:\hg\ssc\brk\app_brk\venv\lib\site-packages\flask\_compat.py", line 39, in reraise
    raise value
  File "d:\hg\ssc\brk\app_brk\venv\lib\site-packages\flask\app.py", line 1950, in full_dispatch_request
    rv = self.dispatch_request()
  File "d:\hg\ssc\brk\app_brk\venv\lib\site-packages\flask\app.py", line 1936, in dispatch_request
    return self.view_functions[rule.endpoint](**req.view_args)
  File "d:\hg\ssc\brk\app_brk\venv\lib\site-packages\flask_login\utils.py", line 272, in decorated_view
    return func(*args, **kwargs)
  File "D:\HG\SSC\BRK\app_brk\app\routes.py", line 26, in index
    df.to_excel('tmp/output.xlsx')
  File "d:\hg\ssc\brk\app_brk\venv\lib\site-packages\pandas\core\generic.py", line 2026, in to_excel
    formatter.write(
  File "d:\hg\ssc\brk\app_brk\venv\lib\site-packages\pandas\io\formats\excel.py", line 742, in write
    writer.save()
  File "d:\hg\ssc\brk\app_brk\venv\lib\site-packages\pandas\io\excel\_openpyxl.py", line 43, in save
    return self.book.save(self.path)
  File "d:\hg\ssc\brk\app_brk\venv\lib\site-packages\openpyxl\workbook\workbook.py", line 392, in save
    save_workbook(self, filename)
  File "d:\hg\ssc\brk\app_brk\venv\lib\site-packages\openpyxl\writer\excel.py", line 291, in save_workbook
    archive = ZipFile(filename, 'w', ZIP_DEFLATED, allowZip64=True)
  File "C:\Program Files\WindowsApps\PythonSoftwareFoundation.Python.3.8_3.8.1776.0_x64__qbz5n2kfra8p0\lib\zipfile.py", line 1251, in __init__
    self.fp = io.open(file, filemode)
FileNotFoundError: [Errno 2] No such file or directory: 'tmp/output.xlsx'
2020-12-25 06:54:16,408 INFO: BRK startup [in D:\HG\SSC\BRK\app_brk\app\__init__.py:47]
2020-12-25 06:55:04,880 INFO: BRK startup [in D:\HG\SSC\BRK\app_brk\app\__init__.py:47]
2020-12-25 07:07:55,530 INFO: BRK startup [in D:\HG\SSC\BRK\app_brk\app\__init__.py:47]
2020-12-25 07:09:35,956 INFO: BRK startup [in D:\HG\SSC\BRK\app_brk\app\__init__.py:47]
2020-12-25 07:13:14,293 INFO: BRK startup [in D:\HG\SSC\BRK\app_brk\app\__init__.py:47]
2020-12-25 07:21:50,750 INFO: BRK startup [in D:\HG\SSC\BRK\app_brk\app\__init__.py:47]
2020-12-25 07:21:52,025 ERROR: Exception on /index [GET] [in d:\hg\ssc\brk\app_brk\venv\lib\site-packages\flask\app.py:1891]
Traceback (most recent call last):
  File "d:\hg\ssc\brk\app_brk\venv\lib\site-packages\flask\app.py", line 2447, in wsgi_app
    response = self.full_dispatch_request()
  File "d:\hg\ssc\brk\app_brk\venv\lib\site-packages\flask\app.py", line 1952, in full_dispatch_request
    rv = self.handle_user_exception(e)
  File "d:\hg\ssc\brk\app_brk\venv\lib\site-packages\flask\app.py", line 1821, in handle_user_exception
    reraise(exc_type, exc_value, tb)
  File "d:\hg\ssc\brk\app_brk\venv\lib\site-packages\flask\_compat.py", line 39, in reraise
    raise value
  File "d:\hg\ssc\brk\app_brk\venv\lib\site-packages\flask\app.py", line 1950, in full_dispatch_request
    rv = self.dispatch_request()
  File "d:\hg\ssc\brk\app_brk\venv\lib\site-packages\flask\app.py", line 1936, in dispatch_request
    return self.view_functions[rule.endpoint](**req.view_args)
  File "d:\hg\ssc\brk\app_brk\venv\lib\site-packages\flask_login\utils.py", line 272, in decorated_view
    return func(*args, **kwargs)
  File "D:\HG\SSC\BRK\app_brk\app\routes.py", line 26, in index
    download_file(items, columns, filename)
  File "D:\HG\SSC\BRK\app_brk\app\routes.py", line 131, in download_file
    writer = pd.ExcelWriter(os.path.join(app.config['DOWNLOADS_DEFAULT_DEST'], filename), engine='xlsxwriter')
  File "d:\hg\ssc\brk\app_brk\venv\lib\site-packages\pandas\io\excel\_xlsxwriter.py", line 173, in __init__
    import xlsxwriter
ModuleNotFoundError: No module named 'xlsxwriter'
2020-12-25 07:22:42,185 INFO: BRK startup [in D:\HG\SSC\BRK\app_brk\app\__init__.py:47]
2020-12-25 07:28:35,966 INFO: BRK startup [in D:\HG\SSC\BRK\app_brk\app\__init__.py:47]
2020-12-25 07:30:37,268 INFO: BRK startup [in D:\HG\SSC\BRK\app_brk\app\__init__.py:47]
