2020-12-25 05:19:47,704 ERROR: Exception on /uploads [POST] [in d:\hg\ssc\brk\app_brk\venv\lib\site-packages\flask\app.py:1891]
Traceback (most recent call last):
  File "d:\hg\ssc\brk\app_brk\venv\lib\site-packages\flask\app.py", line 2447, in wsgi_app
    response = self.full_dispatch_request()
  File "d:\hg\ssc\brk\app_brk\venv\lib\site-packages\flask\app.py", line 1952, in full_dispatch_request
    rv = self.handle_user_exception(e)
  File "d:\hg\ssc\brk\app_brk\venv\lib\site-packages\flask\app.py", line 1821, in handle_user_exception
    reraise(exc_type, exc_value, tb)
  File "d:\hg\ssc\brk\app_brk\venv\lib\site-packages\flask\_compat.py", line 39, in reraise
    raise value
  File "d:\hg\ssc\brk\app_brk\venv\lib\site-packages\flask\app.py", line 1950, in full_dispatch_request
    rv = self.dispatch_request()
  File "d:\hg\ssc\brk\app_brk\venv\lib\site-packages\flask\app.py", line 1936, in dispatch_request
    return self.view_functions[rule.endpoint](**req.view_args)
  File "d:\hg\ssc\brk\app_brk\venv\lib\site-packages\flask_login\utils.py", line 272, in decorated_view
    return func(*args, **kwargs)
  File "D:\HG\SSC\BRK\app_brk\app\routes.py", line 118, in uploads
    recognizer(os.path.join(app.config['UPLOADS_DEFAULT_DEST'], filename))
  File "D:\HG\SSC\BRK\app_brk\app\routes.py", line 138, in recognizer
    df = pd.read_csv(file, sep=';')
  File "d:\hg\ssc\brk\app_brk\venv\lib\site-packages\pandas\io\parsers.py", line 688, in read_csv
    return _read(filepath_or_buffer, kwds)
  File "d:\hg\ssc\brk\app_brk\venv\lib\site-packages\pandas\io\parsers.py", line 454, in _read
    parser = TextFileReader(fp_or_buf, **kwds)
  File "d:\hg\ssc\brk\app_brk\venv\lib\site-packages\pandas\io\parsers.py", line 948, in __init__
    self._make_engine(self.engine)
  File "d:\hg\ssc\brk\app_brk\venv\lib\site-packages\pandas\io\parsers.py", line 1180, in _make_engine
    self._engine = CParserWrapper(self.f, **self.options)
  File "d:\hg\ssc\brk\app_brk\venv\lib\site-packages\pandas\io\parsers.py", line 2010, in __init__
    self._reader = parsers.TextReader(src, **kwds)
  File "pandas\_libs\parsers.pyx", line 537, in pandas._libs.parsers.TextReader.__cinit__
  File "pandas\_libs\parsers.pyx", line 711, in pandas._libs.parsers.TextReader._get_header
  File "pandas\_libs\parsers.pyx", line 905, in pandas._libs.parsers.TextReader._tokenize_rows
  File "pandas\_libs\parsers.pyx", line 2034, in pandas._libs.parsers.raise_parser_error
UnicodeDecodeError: 'utf-8' codec can't decode bytes in position 15-16: invalid continuation byte
2020-12-25 05:21:34,976 INFO: BRK startup [in D:\HG\SSC\BRK\app_brk\app\__init__.py:47]
2020-12-25 05:21:44,950 INFO: BRK startup [in D:\HG\SSC\BRK\app_brk\app\__init__.py:47]
2020-12-25 05:23:07,927 INFO: BRK startup [in D:\HG\SSC\BRK\app_brk\app\__init__.py:47]
2020-12-25 05:23:45,582 INFO: BRK startup [in D:\HG\SSC\BRK\app_brk\app\__init__.py:47]
2020-12-25 05:24:16,688 INFO: BRK startup [in D:\HG\SSC\BRK\app_brk\app\__init__.py:47]
2020-12-25 05:25:46,742 INFO: BRK startup [in D:\HG\SSC\BRK\app_brk\app\__init__.py:47]
2020-12-25 05:26:13,842 INFO: BRK startup [in D:\HG\SSC\BRK\app_brk\app\__init__.py:47]
2020-12-25 05:26:29,883 INFO: BRK startup [in D:\HG\SSC\BRK\app_brk\app\__init__.py:47]
2020-12-25 05:26:53,211 INFO: BRK startup [in D:\HG\SSC\BRK\app_brk\app\__init__.py:47]
2020-12-25 05:28:02,024 INFO: BRK startup [in D:\HG\SSC\BRK\app_brk\app\__init__.py:47]
2020-12-25 05:35:41,073 INFO: BRK startup [in D:\HG\SSC\BRK\app_brk\app\__init__.py:47]
2020-12-25 05:38:13,088 INFO: BRK startup [in D:\HG\SSC\BRK\app_brk\app\__init__.py:47]
2020-12-25 05:40:58,020 INFO: BRK startup [in D:\HG\SSC\BRK\app_brk\app\__init__.py:47]
2020-12-25 05:41:47,132 INFO: BRK startup [in D:\HG\SSC\BRK\app_brk\app\__init__.py:47]
2020-12-25 05:46:27,453 INFO: BRK startup [in D:\HG\SSC\BRK\app_brk\app\__init__.py:47]
2020-12-25 05:52:26,187 INFO: BRK startup [in D:\HG\SSC\BRK\app_brk\app\__init__.py:47]
2020-12-25 05:52:55,589 ERROR: Exception on /uploads [POST] [in d:\hg\ssc\brk\app_brk\venv\lib\site-packages\flask\app.py:1891]
Traceback (most recent call last):
  File "d:\hg\ssc\brk\app_brk\venv\lib\site-packages\sqlalchemy\engine\base.py", line 1256, in _execute_context
    self.dialect.do_executemany(
  File "d:\hg\ssc\brk\app_brk\venv\lib\site-packages\sqlalchemy\engine\default.py", line 590, in do_executemany
    cursor.executemany(statement, parameters)
sqlite3.IntegrityError: UNIQUE constraint failed: live_collection.marker

The above exception was the direct cause of the following exception:

Traceback (most recent call last):
  File "d:\hg\ssc\brk\app_brk\venv\lib\site-packages\flask\app.py", line 2447, in wsgi_app
    response = self.full_dispatch_request()
  File "d:\hg\ssc\brk\app_brk\venv\lib\site-packages\flask\app.py", line 1952, in full_dispatch_request
    rv = self.handle_user_exception(e)
  File "d:\hg\ssc\brk\app_brk\venv\lib\site-packages\flask\app.py", line 1821, in handle_user_exception
    reraise(exc_type, exc_value, tb)
  File "d:\hg\ssc\brk\app_brk\venv\lib\site-packages\flask\_compat.py", line 39, in reraise
    raise value
  File "d:\hg\ssc\brk\app_brk\venv\lib\site-packages\flask\app.py", line 1950, in full_dispatch_request
    rv = self.dispatch_request()
  File "d:\hg\ssc\brk\app_brk\venv\lib\site-packages\flask\app.py", line 1936, in dispatch_request
    return self.view_functions[rule.endpoint](**req.view_args)
  File "d:\hg\ssc\brk\app_brk\venv\lib\site-packages\flask_login\utils.py", line 272, in decorated_view
    return func(*args, **kwargs)
  File "D:\HG\SSC\BRK\app_brk\app\routes.py", line 121, in uploads
    recognizer(os.path.join(app.config['UPLOADS_DEFAULT_DEST'], filename))
  File "D:\HG\SSC\BRK\app_brk\app\routes.py", line 145, in recognizer
    table_reader(df, flag)
  File "D:\HG\SSC\BRK\app_brk\app\routes.py", line 163, in table_reader
    tmp = df.to_sql('live_collection', engine, if_exists='append', index=False)
  File "d:\hg\ssc\brk\app_brk\venv\lib\site-packages\pandas\core\generic.py", line 2605, in to_sql
    sql.to_sql(
  File "d:\hg\ssc\brk\app_brk\venv\lib\site-packages\pandas\io\sql.py", line 589, in to_sql
    pandas_sql.to_sql(
  File "d:\hg\ssc\brk\app_brk\venv\lib\site-packages\pandas\io\sql.py", line 1406, in to_sql
    raise err
  File "d:\hg\ssc\brk\app_brk\venv\lib\site-packages\pandas\io\sql.py", line 1398, in to_sql
    table.insert(chunksize, method=method)
  File "d:\hg\ssc\brk\app_brk\venv\lib\site-packages\pandas\io\sql.py", line 830, in insert
    exec_insert(conn, keys, chunk_iter)
  File "d:\hg\ssc\brk\app_brk\venv\lib\site-packages\pandas\io\sql.py", line 747, in _execute_insert
    conn.execute(self.table.insert(), data)
  File "d:\hg\ssc\brk\app_brk\venv\lib\site-packages\sqlalchemy\engine\base.py", line 1011, in execute
    return meth(self, multiparams, params)
  File "d:\hg\ssc\brk\app_brk\venv\lib\site-packages\sqlalchemy\sql\elements.py", line 298, in _execute_on_connection
    return connection._execute_clauseelement(self, multiparams, params)
  File "d:\hg\ssc\brk\app_brk\venv\lib\site-packages\sqlalchemy\engine\base.py", line 1124, in _execute_clauseelement
    ret = self._execute_context(
  File "d:\hg\ssc\brk\app_brk\venv\lib\site-packages\sqlalchemy\engine\base.py", line 1316, in _execute_context
    self._handle_dbapi_exception(
  File "d:\hg\ssc\brk\app_brk\venv\lib\site-packages\sqlalchemy\engine\base.py", line 1510, in _handle_dbapi_exception
    util.raise_(
  File "d:\hg\ssc\brk\app_brk\venv\lib\site-packages\sqlalchemy\util\compat.py", line 182, in raise_
    raise exception
  File "d:\hg\ssc\brk\app_brk\venv\lib\site-packages\sqlalchemy\engine\base.py", line 1256, in _execute_context
    self.dialect.do_executemany(
  File "d:\hg\ssc\brk\app_brk\venv\lib\site-packages\sqlalchemy\engine\default.py", line 590, in do_executemany
    cursor.executemany(statement, parameters)
sqlalchemy.exc.IntegrityError: (sqlite3.IntegrityError) UNIQUE constraint failed: live_collection.marker
[SQL: INSERT INTO live_collection (marker, kind, age, pool_number, features, genetics) VALUES (?, ?, ?, ?, ?, ?)]
[parameters: (('32218', 'Стербел', 1, 32, 'Малопродуктивная', 'https://www.ncbi.nlm.nih.gov/nuccore/MG670556.1'), ('3188C', 'Стербел', 132, 32, 'Малопродуктивная', 'https://www.ncbi.nlm.nih.gov/nuccore/MG670557.1'), ('30E3A', 'Стербел', 112, 33, 'Высокопродуктивная', 'https://www.ncbi.nlm.nih.gov/nuccore/MG670559.1'), ('31420', 'Стербел', 23412, 33, 'Высокопродуктивная', 'https://www.ncbi.nlm.nih.gov/nuccore/MG670560.1'), ('32С65', 'Стербел', 56, 33, 'Малопродуктивная', 'https://www.ncbi.nlm.nih.gov/nuccore/MG670562.1'), ('5AC1F', 'Стербел', 7, 32, 'Высокопродуктивная', 'https://www.ncbi.nlm.nih.gov/nuccore/MG670564.1'), ('32A99', 'Стербел', 878, 33, 'Высокопродуктивная', 'https://www.ncbi.nlm.nih.gov/nuccore/MG670566.1'), ('2F631', 'Стербел', 87, 33, 'Малопродуктивная', 'https://www.ncbi.nlm.nih.gov/nuccore/MG670575.1'), ('B56EE', 'Стербел', 8, 32, 'Высокопродуктивная', 'https://www.ncbi.nlm.nih.gov/nuccore/MG670576.1'))]
(Background on this error at: http://sqlalche.me/e/13/gkpj)
2020-12-25 05:55:31,730 INFO: BRK startup [in D:\HG\SSC\BRK\app_brk\app\__init__.py:47]
2020-12-25 05:58:27,511 INFO: BRK startup [in D:\HG\SSC\BRK\app_brk\app\__init__.py:47]
2020-12-25 06:33:56,581 INFO: BRK startup [in D:\HG\SSC\BRK\app_brk\app\__init__.py:47]
2020-12-25 06:38:17,292 INFO: BRK startup [in D:\HG\SSC\BRK\app_brk\app\__init__.py:47]
2020-12-25 06:49:07,878 INFO: BRK startup [in D:\HG\SSC\BRK\app_brk\app\__init__.py:47]
