2020-12-25 08:41:50,333 ERROR: Exception on /index [GET] [in d:\hg\ssc\brk\app_brk\venv\lib\site-packages\flask\app.py:1891]
Traceback (most recent call last):
  File "d:\hg\ssc\brk\app_brk\venv\lib\site-packages\flask\app.py", line 2447, in wsgi_app
    response = self.full_dispatch_request()
  File "d:\hg\ssc\brk\app_brk\venv\lib\site-packages\flask\app.py", line 1952, in full_dispatch_request
    rv = self.handle_user_exception(e)
  File "d:\hg\ssc\brk\app_brk\venv\lib\site-packages\flask\app.py", line 1821, in handle_user_exception
    reraise(exc_type, exc_value, tb)
  File "d:\hg\ssc\brk\app_brk\venv\lib\site-packages\flask\_compat.py", line 39, in reraise
    raise value
  File "d:\hg\ssc\brk\app_brk\venv\lib\site-packages\flask\app.py", line 1950, in full_dispatch_request
    rv = self.dispatch_request()
  File "d:\hg\ssc\brk\app_brk\venv\lib\site-packages\flask\app.py", line 1936, in dispatch_request
    return self.view_functions[rule.endpoint](**req.view_args)
  File "d:\hg\ssc\brk\app_brk\venv\lib\site-packages\flask_login\utils.py", line 272, in decorated_view
    return func(*args, **kwargs)
  File "D:\HG\SSC\BRK\app_brk\app\routes.py", line 27, in index
    return render_template("index.html", title='Живая коллекция', columns=columns, items=items)
  File "d:\hg\ssc\brk\app_brk\venv\lib\site-packages\flask\templating.py", line 137, in render_template
    return _render(
  File "d:\hg\ssc\brk\app_brk\venv\lib\site-packages\flask\templating.py", line 120, in _render
    rv = template.render(context)
  File "d:\hg\ssc\brk\app_brk\venv\lib\site-packages\jinja2\environment.py", line 1090, in render
    self.environment.handle_exception()
  File "d:\hg\ssc\brk\app_brk\venv\lib\site-packages\jinja2\environment.py", line 832, in handle_exception
    reraise(*rewrite_traceback_stack(source=source))
  File "d:\hg\ssc\brk\app_brk\venv\lib\site-packages\jinja2\_compat.py", line 28, in reraise
    raise value.with_traceback(tb)
  File "D:\HG\SSC\BRK\app_brk\app\templates\index.html", line 2, in top-level template code
    {% extends "base.html" %}
  File "D:\HG\SSC\BRK\app_brk\app\templates\base.html", line 2, in top-level template code
    {% extends 'bootstrap/base.html' %}
  File "d:\hg\ssc\brk\app_brk\venv\lib\site-packages\flask_bootstrap\templates\bootstrap\base.html", line 1, in top-level template code
    {% block doc -%}
  File "d:\hg\ssc\brk\app_brk\venv\lib\site-packages\flask_bootstrap\templates\bootstrap\base.html", line 4, in block "doc"
    {%- block html %}
  File "d:\hg\ssc\brk\app_brk\venv\lib\site-packages\flask_bootstrap\templates\bootstrap\base.html", line 20, in block "html"
    {% block body -%}
  File "d:\hg\ssc\brk\app_brk\venv\lib\site-packages\flask_bootstrap\templates\bootstrap\base.html", line 23, in block "body"
    {% block content -%}
  File "D:\HG\SSC\BRK\app_brk\app\templates\index.html", line 13, in block "content"
    <li><a href="{{ url_for('download')}}">Скачать</a></li>
  File "d:\hg\ssc\brk\app_brk\venv\lib\site-packages\flask\helpers.py", line 370, in url_for
    return appctx.app.handle_url_build_error(error, endpoint, values)
  File "d:\hg\ssc\brk\app_brk\venv\lib\site-packages\flask\app.py", line 2216, in handle_url_build_error
    reraise(exc_type, exc_value, tb)
  File "d:\hg\ssc\brk\app_brk\venv\lib\site-packages\flask\_compat.py", line 39, in reraise
    raise value
  File "d:\hg\ssc\brk\app_brk\venv\lib\site-packages\flask\helpers.py", line 357, in url_for
    rv = url_adapter.build(
  File "d:\hg\ssc\brk\app_brk\venv\lib\site-packages\werkzeug\routing.py", line 2179, in build
    raise BuildError(endpoint, values, method, self)
werkzeug.routing.BuildError: Could not build url for endpoint 'download'. Did you forget to specify values ['filename']?
2020-12-25 08:42:24,030 INFO: BRK startup [in D:\HG\SSC\BRK\app_brk\app\__init__.py:47]
2020-12-25 08:42:26,722 ERROR: Exception on /download [GET] [in d:\hg\ssc\brk\app_brk\venv\lib\site-packages\flask\app.py:1891]
Traceback (most recent call last):
  File "d:\hg\ssc\brk\app_brk\venv\lib\site-packages\flask\app.py", line 2447, in wsgi_app
    response = self.full_dispatch_request()
  File "d:\hg\ssc\brk\app_brk\venv\lib\site-packages\flask\app.py", line 1952, in full_dispatch_request
    rv = self.handle_user_exception(e)
  File "d:\hg\ssc\brk\app_brk\venv\lib\site-packages\flask\app.py", line 1821, in handle_user_exception
    reraise(exc_type, exc_value, tb)
  File "d:\hg\ssc\brk\app_brk\venv\lib\site-packages\flask\_compat.py", line 39, in reraise
    raise value
  File "d:\hg\ssc\brk\app_brk\venv\lib\site-packages\flask\app.py", line 1950, in full_dispatch_request
    rv = self.dispatch_request()
  File "d:\hg\ssc\brk\app_brk\venv\lib\site-packages\flask\app.py", line 1936, in dispatch_request
    return self.view_functions[rule.endpoint](**req.view_args)
  File "d:\hg\ssc\brk\app_brk\venv\lib\site-packages\flask_login\utils.py", line 272, in decorated_view
    return func(*args, **kwargs)
TypeError: download() missing 1 required positional argument: 'filename'
2020-12-25 08:42:46,867 INFO: BRK startup [in D:\HG\SSC\BRK\app_brk\app\__init__.py:47]
2020-12-25 08:42:49,651 ERROR: Exception on /download [GET] [in d:\hg\ssc\brk\app_brk\venv\lib\site-packages\flask\app.py:1891]
Traceback (most recent call last):
  File "d:\hg\ssc\brk\app_brk\venv\lib\site-packages\flask\app.py", line 2447, in wsgi_app
    response = self.full_dispatch_request()
  File "d:\hg\ssc\brk\app_brk\venv\lib\site-packages\flask\app.py", line 1952, in full_dispatch_request
    rv = self.handle_user_exception(e)
  File "d:\hg\ssc\brk\app_brk\venv\lib\site-packages\flask\app.py", line 1821, in handle_user_exception
    reraise(exc_type, exc_value, tb)
  File "d:\hg\ssc\brk\app_brk\venv\lib\site-packages\flask\_compat.py", line 39, in reraise
    raise value
  File "d:\hg\ssc\brk\app_brk\venv\lib\site-packages\flask\app.py", line 1950, in full_dispatch_request
    rv = self.dispatch_request()
  File "d:\hg\ssc\brk\app_brk\venv\lib\site-packages\flask\app.py", line 1936, in dispatch_request
    return self.view_functions[rule.endpoint](**req.view_args)
  File "d:\hg\ssc\brk\app_brk\venv\lib\site-packages\flask_login\utils.py", line 272, in decorated_view
    return func(*args, **kwargs)
  File "D:\HG\SSC\BRK\app_brk\app\routes.py", line 145, in download
    outcsv.writerow(result.keys())
TypeError: a bytes-like object is required, not 'str'
2020-12-25 08:47:45,502 INFO: BRK startup [in D:\HG\SSC\BRK\app_brk\app\__init__.py:47]
2020-12-25 08:47:51,935 ERROR: Exception on /download [GET] [in d:\hg\ssc\brk\app_brk\venv\lib\site-packages\flask\app.py:1891]
Traceback (most recent call last):
  File "d:\hg\ssc\brk\app_brk\venv\lib\site-packages\flask\app.py", line 2447, in wsgi_app
    response = self.full_dispatch_request()
  File "d:\hg\ssc\brk\app_brk\venv\lib\site-packages\flask\app.py", line 1952, in full_dispatch_request
    rv = self.handle_user_exception(e)
  File "d:\hg\ssc\brk\app_brk\venv\lib\site-packages\flask\app.py", line 1821, in handle_user_exception
    reraise(exc_type, exc_value, tb)
  File "d:\hg\ssc\brk\app_brk\venv\lib\site-packages\flask\_compat.py", line 39, in reraise
    raise value
  File "d:\hg\ssc\brk\app_brk\venv\lib\site-packages\flask\app.py", line 1950, in full_dispatch_request
    rv = self.dispatch_request()
  File "d:\hg\ssc\brk\app_brk\venv\lib\site-packages\flask\app.py", line 1936, in dispatch_request
    return self.view_functions[rule.endpoint](**req.view_args)
  File "d:\hg\ssc\brk\app_brk\venv\lib\site-packages\flask_login\utils.py", line 272, in decorated_view
    return func(*args, **kwargs)
  File "D:\HG\SSC\BRK\app_brk\app\routes.py", line 134, in download
    outcsv = csv.writer(items)
TypeError: argument 1 must have a "write" method
2020-12-25 08:48:54,057 INFO: BRK startup [in D:\HG\SSC\BRK\app_brk\app\__init__.py:47]
2020-12-25 08:48:56,029 ERROR: Exception on /download [GET] [in d:\hg\ssc\brk\app_brk\venv\lib\site-packages\flask\app.py:1891]
Traceback (most recent call last):
  File "d:\hg\ssc\brk\app_brk\venv\lib\site-packages\flask\app.py", line 2447, in wsgi_app
    response = self.full_dispatch_request()
  File "d:\hg\ssc\brk\app_brk\venv\lib\site-packages\flask\app.py", line 1952, in full_dispatch_request
    rv = self.handle_user_exception(e)
  File "d:\hg\ssc\brk\app_brk\venv\lib\site-packages\flask\app.py", line 1821, in handle_user_exception
    reraise(exc_type, exc_value, tb)
  File "d:\hg\ssc\brk\app_brk\venv\lib\site-packages\flask\_compat.py", line 39, in reraise
    raise value
  File "d:\hg\ssc\brk\app_brk\venv\lib\site-packages\flask\app.py", line 1950, in full_dispatch_request
    rv = self.dispatch_request()
  File "d:\hg\ssc\brk\app_brk\venv\lib\site-packages\flask\app.py", line 1936, in dispatch_request
    return self.view_functions[rule.endpoint](**req.view_args)
  File "d:\hg\ssc\brk\app_brk\venv\lib\site-packages\flask_login\utils.py", line 272, in decorated_view
    return func(*args, **kwargs)
  File "D:\HG\SSC\BRK\app_brk\app\routes.py", line 136, in download
    outcsv.writerow(columns)
TypeError: a bytes-like object is required, not 'str'
2020-12-25 08:52:23,495 INFO: BRK startup [in D:\HG\SSC\BRK\app_brk\app\__init__.py:47]
