2020-12-25 07:51:06,459 ERROR: Exception on /index [GET] [in d:\hg\ssc\brk\app_brk\venv\lib\site-packages\flask\app.py:1891]
Traceback (most recent call last):
  File "d:\hg\ssc\brk\app_brk\venv\lib\site-packages\flask\app.py", line 2447, in wsgi_app
    response = self.full_dispatch_request()
  File "d:\hg\ssc\brk\app_brk\venv\lib\site-packages\flask\app.py", line 1952, in full_dispatch_request
    rv = self.handle_user_exception(e)
  File "d:\hg\ssc\brk\app_brk\venv\lib\site-packages\flask\app.py", line 1821, in handle_user_exception
    reraise(exc_type, exc_value, tb)
  File "d:\hg\ssc\brk\app_brk\venv\lib\site-packages\flask\_compat.py", line 39, in reraise
    raise value
  File "d:\hg\ssc\brk\app_brk\venv\lib\site-packages\flask\app.py", line 1950, in full_dispatch_request
    rv = self.dispatch_request()
  File "d:\hg\ssc\brk\app_brk\venv\lib\site-packages\flask\app.py", line 1936, in dispatch_request
    return self.view_functions[rule.endpoint](**req.view_args)
  File "d:\hg\ssc\brk\app_brk\venv\lib\site-packages\flask_login\utils.py", line 272, in decorated_view
    return func(*args, **kwargs)
  File "D:\HG\SSC\BRK\app_brk\app\routes.py", line 25, in index
    return render_template("index.html", title='Живая коллекция', columns=columns, items=items)
  File "d:\hg\ssc\brk\app_brk\venv\lib\site-packages\flask\templating.py", line 137, in render_template
    return _render(
  File "d:\hg\ssc\brk\app_brk\venv\lib\site-packages\flask\templating.py", line 120, in _render
    rv = template.render(context)
  File "d:\hg\ssc\brk\app_brk\venv\lib\site-packages\jinja2\environment.py", line 1090, in render
    self.environment.handle_exception()
  File "d:\hg\ssc\brk\app_brk\venv\lib\site-packages\jinja2\environment.py", line 832, in handle_exception
    reraise(*rewrite_traceback_stack(source=source))
  File "d:\hg\ssc\brk\app_brk\venv\lib\site-packages\jinja2\_compat.py", line 28, in reraise
    raise value.with_traceback(tb)
  File "D:\HG\SSC\BRK\app_brk\app\templates\index.html", line 2, in top-level template code
    {% extends "base.html" %}
  File "D:\HG\SSC\BRK\app_brk\app\templates\base.html", line 2, in top-level template code
    {% extends 'bootstrap/base.html' %}
  File "d:\hg\ssc\brk\app_brk\venv\lib\site-packages\flask_bootstrap\templates\bootstrap\base.html", line 1, in top-level template code
    {% block doc -%}
  File "d:\hg\ssc\brk\app_brk\venv\lib\site-packages\flask_bootstrap\templates\bootstrap\base.html", line 4, in block "doc"
    {%- block html %}
  File "d:\hg\ssc\brk\app_brk\venv\lib\site-packages\flask_bootstrap\templates\bootstrap\base.html", line 20, in block "html"
    {% block body -%}
  File "d:\hg\ssc\brk\app_brk\venv\lib\site-packages\flask_bootstrap\templates\bootstrap\base.html", line 23, in block "body"
    {% block content -%}
  File "D:\HG\SSC\BRK\app_brk\app\templates\index.html", line 13, in block "content"
    <li><a href="{{ url_for('download', filename=live_collection) }}">Скачать</a></li>
  File "d:\hg\ssc\brk\app_brk\venv\lib\site-packages\flask\helpers.py", line 370, in url_for
    return appctx.app.handle_url_build_error(error, endpoint, values)
  File "d:\hg\ssc\brk\app_brk\venv\lib\site-packages\flask\app.py", line 2216, in handle_url_build_error
    reraise(exc_type, exc_value, tb)
  File "d:\hg\ssc\brk\app_brk\venv\lib\site-packages\flask\_compat.py", line 39, in reraise
    raise value
  File "d:\hg\ssc\brk\app_brk\venv\lib\site-packages\flask\helpers.py", line 357, in url_for
    rv = url_adapter.build(
  File "d:\hg\ssc\brk\app_brk\venv\lib\site-packages\werkzeug\routing.py", line 2179, in build
    raise BuildError(endpoint, values, method, self)
werkzeug.routing.BuildError: Could not build url for endpoint 'download' with values ['filename']. Did you mean 'download_file' instead?
2020-12-25 07:51:36,557 INFO: BRK startup [in D:\HG\SSC\BRK\app_brk\app\__init__.py:47]
2020-12-25 07:56:47,227 INFO: BRK startup [in D:\HG\SSC\BRK\app_brk\app\__init__.py:47]
2020-12-25 08:06:01,052 INFO: BRK startup [in D:\HG\SSC\BRK\app_brk\app\__init__.py:47]
2020-12-25 08:06:12,525 INFO: BRK startup [in D:\HG\SSC\BRK\app_brk\app\__init__.py:47]
2020-12-25 08:06:21,240 ERROR: Exception on /uploads [POST] [in d:\hg\ssc\brk\app_brk\venv\lib\site-packages\flask\app.py:1891]
Traceback (most recent call last):
  File "d:\hg\ssc\brk\app_brk\venv\lib\site-packages\sqlalchemy\engine\base.py", line 1256, in _execute_context
    self.dialect.do_executemany(
  File "d:\hg\ssc\brk\app_brk\venv\lib\site-packages\sqlalchemy\engine\default.py", line 590, in do_executemany
    cursor.executemany(statement, parameters)
sqlite3.IntegrityError: UNIQUE constraint failed: live_collection.marker

The above exception was the direct cause of the following exception:

Traceback (most recent call last):
  File "d:\hg\ssc\brk\app_brk\venv\lib\site-packages\flask\app.py", line 2447, in wsgi_app
    response = self.full_dispatch_request()
  File "d:\hg\ssc\brk\app_brk\venv\lib\site-packages\flask\app.py", line 1952, in full_dispatch_request
    rv = self.handle_user_exception(e)
  File "d:\hg\ssc\brk\app_brk\venv\lib\site-packages\flask\app.py", line 1821, in handle_user_exception
    reraise(exc_type, exc_value, tb)
  File "d:\hg\ssc\brk\app_brk\venv\lib\site-packages\flask\_compat.py", line 39, in reraise
    raise value
  File "d:\hg\ssc\brk\app_brk\venv\lib\site-packages\flask\app.py", line 1950, in full_dispatch_request
    rv = self.dispatch_request()
  File "d:\hg\ssc\brk\app_brk\venv\lib\site-packages\flask\app.py", line 1936, in dispatch_request
    return self.view_functions[rule.endpoint](**req.view_args)
  File "d:\hg\ssc\brk\app_brk\venv\lib\site-packages\flask_login\utils.py", line 272, in decorated_view
    return func(*args, **kwargs)
  File "D:\HG\SSC\BRK\app_brk\app\routes.py", line 121, in uploads
    recognizer(os.path.join(app.config['UPLOADS_DEFAULT_DEST'], filename))
  File "D:\HG\SSC\BRK\app_brk\app\routes.py", line 145, in recognizer
    table_reader(df, flag)
  File "D:\HG\SSC\BRK\app_brk\app\routes.py", line 164, in table_reader
    df.to_sql('live_collection', engine, if_exists='append', index=False)
  File "d:\hg\ssc\brk\app_brk\venv\lib\site-packages\pandas\core\generic.py", line 2605, in to_sql
    sql.to_sql(
  File "d:\hg\ssc\brk\app_brk\venv\lib\site-packages\pandas\io\sql.py", line 589, in to_sql
    pandas_sql.to_sql(
  File "d:\hg\ssc\brk\app_brk\venv\lib\site-packages\pandas\io\sql.py", line 1406, in to_sql
    raise err
  File "d:\hg\ssc\brk\app_brk\venv\lib\site-packages\pandas\io\sql.py", line 1398, in to_sql
    table.insert(chunksize, method=method)
  File "d:\hg\ssc\brk\app_brk\venv\lib\site-packages\pandas\io\sql.py", line 830, in insert
    exec_insert(conn, keys, chunk_iter)
  File "d:\hg\ssc\brk\app_brk\venv\lib\site-packages\pandas\io\sql.py", line 747, in _execute_insert
    conn.execute(self.table.insert(), data)
  File "d:\hg\ssc\brk\app_brk\venv\lib\site-packages\sqlalchemy\engine\base.py", line 1011, in execute
    return meth(self, multiparams, params)
  File "d:\hg\ssc\brk\app_brk\venv\lib\site-packages\sqlalchemy\sql\elements.py", line 298, in _execute_on_connection
    return connection._execute_clauseelement(self, multiparams, params)
  File "d:\hg\ssc\brk\app_brk\venv\lib\site-packages\sqlalchemy\engine\base.py", line 1124, in _execute_clauseelement
    ret = self._execute_context(
  File "d:\hg\ssc\brk\app_brk\venv\lib\site-packages\sqlalchemy\engine\base.py", line 1316, in _execute_context
    self._handle_dbapi_exception(
  File "d:\hg\ssc\brk\app_brk\venv\lib\site-packages\sqlalchemy\engine\base.py", line 1510, in _handle_dbapi_exception
    util.raise_(
  File "d:\hg\ssc\brk\app_brk\venv\lib\site-packages\sqlalchemy\util\compat.py", line 182, in raise_
    raise exception
  File "d:\hg\ssc\brk\app_brk\venv\lib\site-packages\sqlalchemy\engine\base.py", line 1256, in _execute_context
    self.dialect.do_executemany(
  File "d:\hg\ssc\brk\app_brk\venv\lib\site-packages\sqlalchemy\engine\default.py", line 590, in do_executemany
    cursor.executemany(statement, parameters)
sqlalchemy.exc.IntegrityError: (sqlite3.IntegrityError) UNIQUE constraint failed: live_collection.marker
[SQL: INSERT INTO live_collection (marker, kind, age, pool_number, features, genetics) VALUES (?, ?, ?, ?, ?, ?)]
[parameters: (('32218', 'Стербел', 1, 32, 'Малопродуктивная', 'https://www.ncbi.nlm.nih.gov/nuccore/MG670556.1'), ('3188C', 'Стербел', 132, 32, 'Малопродуктивная', 'https://www.ncbi.nlm.nih.gov/nuccore/MG670557.1'), ('30E3A', 'Стербел', 112, 33, 'Высокопродуктивная', 'https://www.ncbi.nlm.nih.gov/nuccore/MG670559.1'), ('31420', 'Стербел', 23412, 33, 'Высокопродуктивная', 'https://www.ncbi.nlm.nih.gov/nuccore/MG670560.1'), ('32С65', 'Стербел', 56, 33, 'Малопродуктивная', 'https://www.ncbi.nlm.nih.gov/nuccore/MG670562.1'), ('5AC1F', 'Стербел', 7, 32, 'Высокопродуктивная', 'https://www.ncbi.nlm.nih.gov/nuccore/MG670564.1'), ('32A99', 'Стербел', 878, 33, 'Высокопродуктивная', 'https://www.ncbi.nlm.nih.gov/nuccore/MG670566.1'), ('2F631', 'Стербел', 87, 33, 'Малопродуктивная', 'https://www.ncbi.nlm.nih.gov/nuccore/MG670575.1'), ('B56EE', 'Стербел', 8, 32, 'Высокопродуктивная', 'https://www.ncbi.nlm.nih.gov/nuccore/MG670576.1'))]
(Background on this error at: http://sqlalche.me/e/13/gkpj)
2020-12-25 08:06:51,889 INFO: BRK startup [in D:\HG\SSC\BRK\app_brk\app\__init__.py:47]
2020-12-25 08:12:50,066 INFO: BRK startup [in D:\HG\SSC\BRK\app_brk\app\__init__.py:47]
2020-12-25 08:14:36,734 INFO: BRK startup [in D:\HG\SSC\BRK\app_brk\app\__init__.py:47]
2020-12-25 08:15:59,632 INFO: BRK startup [in D:\HG\SSC\BRK\app_brk\app\__init__.py:47]
2020-12-25 08:30:27,818 INFO: BRK startup [in D:\HG\SSC\BRK\app_brk\app\__init__.py:47]
2020-12-25 08:30:52,449 INFO: BRK startup [in D:\HG\SSC\BRK\app_brk\app\__init__.py:47]
