2020-12-25 08:31:11,837 INFO: BRK startup [in D:\HG\SSC\BRK\app_brk\app\__init__.py:47]
2020-12-25 08:32:01,762 INFO: BRK startup [in D:\HG\SSC\BRK\app_brk\app\__init__.py:47]
2020-12-25 08:38:35,803 INFO: BRK startup [in D:\HG\SSC\BRK\app_brk\app\__init__.py:47]
2020-12-25 08:39:15,698 INFO: BRK startup [in D:\HG\SSC\BRK\app_brk\app\__init__.py:47]
2020-12-25 08:40:34,175 INFO: BRK startup [in D:\HG\SSC\BRK\app_brk\app\__init__.py:47]
2020-12-25 08:40:35,378 ERROR: Exception on /index [GET] [in d:\hg\ssc\brk\app_brk\venv\lib\site-packages\flask\app.py:1891]
Traceback (most recent call last):
  File "d:\hg\ssc\brk\app_brk\venv\lib\site-packages\flask\app.py", line 2447, in wsgi_app
    response = self.full_dispatch_request()
  File "d:\hg\ssc\brk\app_brk\venv\lib\site-packages\flask\app.py", line 1952, in full_dispatch_request
    rv = self.handle_user_exception(e)
  File "d:\hg\ssc\brk\app_brk\venv\lib\site-packages\flask\app.py", line 1821, in handle_user_exception
    reraise(exc_type, exc_value, tb)
  File "d:\hg\ssc\brk\app_brk\venv\lib\site-packages\flask\_compat.py", line 39, in reraise
    raise value
  File "d:\hg\ssc\brk\app_brk\venv\lib\site-packages\flask\app.py", line 1950, in full_dispatch_request
    rv = self.dispatch_request()
  File "d:\hg\ssc\brk\app_brk\venv\lib\site-packages\flask\app.py", line 1936, in dispatch_request
    return self.view_functions[rule.endpoint](**req.view_args)
  File "d:\hg\ssc\brk\app_brk\venv\lib\site-packages\flask_login\utils.py", line 272, in decorated_view
    return func(*args, **kwargs)
  File "D:\HG\SSC\BRK\app_brk\app\routes.py", line 27, in index
    return render_template("index.html", title='Живая коллекция', columns=columns, items=items)
  File "d:\hg\ssc\brk\app_brk\venv\lib\site-packages\flask\templating.py", line 137, in render_template
    return _render(
  File "d:\hg\ssc\brk\app_brk\venv\lib\site-packages\flask\templating.py", line 120, in _render
    rv = template.render(context)
  File "d:\hg\ssc\brk\app_brk\venv\lib\site-packages\jinja2\environment.py", line 1090, in render
    self.environment.handle_exception()
  File "d:\hg\ssc\brk\app_brk\venv\lib\site-packages\jinja2\environment.py", line 832, in handle_exception
    reraise(*rewrite_traceback_stack(source=source))
  File "d:\hg\ssc\brk\app_brk\venv\lib\site-packages\jinja2\_compat.py", line 28, in reraise
    raise value.with_traceback(tb)
  File "D:\HG\SSC\BRK\app_brk\app\templates\index.html", line 2, in top-level template code
    {% extends "base.html" %}
  File "D:\HG\SSC\BRK\app_brk\app\templates\base.html", line 2, in top-level template code
    {% extends 'bootstrap/base.html' %}
  File "d:\hg\ssc\brk\app_brk\venv\lib\site-packages\flask_bootstrap\templates\bootstrap\base.html", line 1, in top-level template code
    {% block doc -%}
  File "d:\hg\ssc\brk\app_brk\venv\lib\site-packages\flask_bootstrap\templates\bootstrap\base.html", line 4, in block "doc"
    {%- block html %}
  File "d:\hg\ssc\brk\app_brk\venv\lib\site-packages\flask_bootstrap\templates\bootstrap\base.html", line 20, in block "html"
    {% block body -%}
  File "d:\hg\ssc\brk\app_brk\venv\lib\site-packages\flask_bootstrap\templates\bootstrap\base.html", line 23, in block "body"
    {% block content -%}
  File "D:\HG\SSC\BRK\app_brk\app\templates\index.html", line 13, in block "content"
    <li><a href="{{ url_for('download_file', filename=live_collection) }}">Скачать</a></li>
  File "d:\hg\ssc\brk\app_brk\venv\lib\site-packages\flask\helpers.py", line 370, in url_for
    return appctx.app.handle_url_build_error(error, endpoint, values)
  File "d:\hg\ssc\brk\app_brk\venv\lib\site-packages\flask\app.py", line 2216, in handle_url_build_error
    reraise(exc_type, exc_value, tb)
  File "d:\hg\ssc\brk\app_brk\venv\lib\site-packages\flask\_compat.py", line 39, in reraise
    raise value
  File "d:\hg\ssc\brk\app_brk\venv\lib\site-packages\flask\helpers.py", line 357, in url_for
    rv = url_adapter.build(
  File "d:\hg\ssc\brk\app_brk\venv\lib\site-packages\werkzeug\routing.py", line 2179, in build
    raise BuildError(endpoint, values, method, self)
werkzeug.routing.BuildError: Could not build url for endpoint 'download_file' with values ['filename']. Did you mean 'download' instead?
2020-12-25 08:40:55,901 INFO: BRK startup [in D:\HG\SSC\BRK\app_brk\app\__init__.py:47]
2020-12-25 08:41:30,055 INFO: BRK startup [in D:\HG\SSC\BRK\app_brk\app\__init__.py:47]
2020-12-25 08:41:31,333 ERROR: Exception on /index [GET] [in d:\hg\ssc\brk\app_brk\venv\lib\site-packages\flask\app.py:1891]
Traceback (most recent call last):
  File "d:\hg\ssc\brk\app_brk\venv\lib\site-packages\flask\app.py", line 2447, in wsgi_app
    response = self.full_dispatch_request()
  File "d:\hg\ssc\brk\app_brk\venv\lib\site-packages\flask\app.py", line 1952, in full_dispatch_request
    rv = self.handle_user_exception(e)
  File "d:\hg\ssc\brk\app_brk\venv\lib\site-packages\flask\app.py", line 1821, in handle_user_exception
    reraise(exc_type, exc_value, tb)
  File "d:\hg\ssc\brk\app_brk\venv\lib\site-packages\flask\_compat.py", line 39, in reraise
    raise value
  File "d:\hg\ssc\brk\app_brk\venv\lib\site-packages\flask\app.py", line 1950, in full_dispatch_request
    rv = self.dispatch_request()
  File "d:\hg\ssc\brk\app_brk\venv\lib\site-packages\flask\app.py", line 1936, in dispatch_request
    return self.view_functions[rule.endpoint](**req.view_args)
  File "d:\hg\ssc\brk\app_brk\venv\lib\site-packages\flask_login\utils.py", line 272, in decorated_view
    return func(*args, **kwargs)
  File "D:\HG\SSC\BRK\app_brk\app\routes.py", line 27, in index
    return render_template("index.html", title='Живая коллекция', columns=columns, items=items)
  File "d:\hg\ssc\brk\app_brk\venv\lib\site-packages\flask\templating.py", line 138, in render_template
    ctx.app.jinja_env.get_or_select_template(template_name_or_list),
  File "d:\hg\ssc\brk\app_brk\venv\lib\site-packages\jinja2\environment.py", line 930, in get_or_select_template
    return self.get_template(template_name_or_list, parent, globals)
  File "d:\hg\ssc\brk\app_brk\venv\lib\site-packages\jinja2\environment.py", line 883, in get_template
    return self._load_template(name, self.make_globals(globals))
  File "d:\hg\ssc\brk\app_brk\venv\lib\site-packages\jinja2\environment.py", line 857, in _load_template
    template = self.loader.load(self, name, globals)
  File "d:\hg\ssc\brk\app_brk\venv\lib\site-packages\jinja2\loaders.py", line 127, in load
    code = environment.compile(source, name, filename)
  File "d:\hg\ssc\brk\app_brk\venv\lib\site-packages\jinja2\environment.py", line 638, in compile
    self.handle_exception(source=source_hint)
  File "d:\hg\ssc\brk\app_brk\venv\lib\site-packages\jinja2\environment.py", line 832, in handle_exception
    reraise(*rewrite_traceback_stack(source=source))
  File "d:\hg\ssc\brk\app_brk\venv\lib\site-packages\jinja2\_compat.py", line 28, in reraise
    raise value.with_traceback(tb)
  File "D:\HG\SSC\BRK\app_brk\app\templates\index.html", line 13, in template
    <li><a href="{{ url_for('download'}}">Скачать</a></li>
jinja2.exceptions.TemplateSyntaxError: unexpected '}', expected ')'
2020-12-25 08:41:49,088 INFO: BRK startup [in D:\HG\SSC\BRK\app_brk\app\__init__.py:47]
