2020-12-21 03:18:20,534 ERROR: Exception on /uploads [GET] [in d:\hg\ssc\brk\app_brk\venv\lib\site-packages\flask\app.py:1891]
Traceback (most recent call last):
  File "d:\hg\ssc\brk\app_brk\venv\lib\site-packages\flask\app.py", line 2447, in wsgi_app
    response = self.full_dispatch_request()
  File "d:\hg\ssc\brk\app_brk\venv\lib\site-packages\flask\app.py", line 1952, in full_dispatch_request
    rv = self.handle_user_exception(e)
  File "d:\hg\ssc\brk\app_brk\venv\lib\site-packages\flask\app.py", line 1821, in handle_user_exception
    reraise(exc_type, exc_value, tb)
  File "d:\hg\ssc\brk\app_brk\venv\lib\site-packages\flask\_compat.py", line 39, in reraise
    raise value
  File "d:\hg\ssc\brk\app_brk\venv\lib\site-packages\flask\app.py", line 1950, in full_dispatch_request
    rv = self.dispatch_request()
  File "d:\hg\ssc\brk\app_brk\venv\lib\site-packages\flask\app.py", line 1936, in dispatch_request
    return self.view_functions[rule.endpoint](**req.view_args)
  File "d:\hg\ssc\brk\app_brk\venv\lib\site-packages\flask_login\utils.py", line 272, in decorated_view
    return func(*args, **kwargs)
  File "D:\HG\SSC\BRK\app_brk\app\routes.py", line 70, in uploads
    os.makedirs(uploads_dir, exists_ok=True)
TypeError: makedirs() got an unexpected keyword argument 'exists_ok'
2020-12-21 03:19:20,978 INFO: Microblog startup [in D:\HG\SSC\BRK\app_brk\app\__init__.py:43]
2020-12-21 03:20:07,418 ERROR: Exception on /uploads [POST] [in d:\hg\ssc\brk\app_brk\venv\lib\site-packages\flask\app.py:1891]
Traceback (most recent call last):
  File "d:\hg\ssc\brk\app_brk\venv\lib\site-packages\flask\app.py", line 2447, in wsgi_app
    response = self.full_dispatch_request()
  File "d:\hg\ssc\brk\app_brk\venv\lib\site-packages\flask\app.py", line 1952, in full_dispatch_request
    rv = self.handle_user_exception(e)
  File "d:\hg\ssc\brk\app_brk\venv\lib\site-packages\flask\app.py", line 1821, in handle_user_exception
    reraise(exc_type, exc_value, tb)
  File "d:\hg\ssc\brk\app_brk\venv\lib\site-packages\flask\_compat.py", line 39, in reraise
    raise value
  File "d:\hg\ssc\brk\app_brk\venv\lib\site-packages\flask\app.py", line 1950, in full_dispatch_request
    rv = self.dispatch_request()
  File "d:\hg\ssc\brk\app_brk\venv\lib\site-packages\flask\app.py", line 1936, in dispatch_request
    return self.view_functions[rule.endpoint](**req.view_args)
  File "d:\hg\ssc\brk\app_brk\venv\lib\site-packages\flask_login\utils.py", line 272, in decorated_view
    return func(*args, **kwargs)
  File "D:\HG\SSC\BRK\app_brk\app\routes.py", line 71, in uploads
    os.makedirs(uploads_dir, exists_ok=True)
TypeError: makedirs() got an unexpected keyword argument 'exists_ok'
2020-12-21 03:22:15,044 ERROR: Exception on /uploads [POST] [in d:\hg\ssc\brk\app_brk\venv\lib\site-packages\flask\app.py:1891]
Traceback (most recent call last):
  File "d:\hg\ssc\brk\app_brk\venv\lib\site-packages\flask\app.py", line 2447, in wsgi_app
    response = self.full_dispatch_request()
  File "d:\hg\ssc\brk\app_brk\venv\lib\site-packages\flask\app.py", line 1952, in full_dispatch_request
    rv = self.handle_user_exception(e)
  File "d:\hg\ssc\brk\app_brk\venv\lib\site-packages\flask\app.py", line 1821, in handle_user_exception
    reraise(exc_type, exc_value, tb)
  File "d:\hg\ssc\brk\app_brk\venv\lib\site-packages\flask\_compat.py", line 39, in reraise
    raise value
  File "d:\hg\ssc\brk\app_brk\venv\lib\site-packages\flask\app.py", line 1950, in full_dispatch_request
    rv = self.dispatch_request()
  File "d:\hg\ssc\brk\app_brk\venv\lib\site-packages\flask\app.py", line 1936, in dispatch_request
    return self.view_functions[rule.endpoint](**req.view_args)
  File "d:\hg\ssc\brk\app_brk\venv\lib\site-packages\flask_login\utils.py", line 272, in decorated_view
    return func(*args, **kwargs)
  File "D:\HG\SSC\BRK\app_brk\app\routes.py", line 71, in uploads
    os.makedirs(uploads_dir, exists_ok=True)
TypeError: makedirs() got an unexpected keyword argument 'exists_ok'
2020-12-21 03:22:26,286 ERROR: Exception on /uploads [POST] [in d:\hg\ssc\brk\app_brk\venv\lib\site-packages\flask\app.py:1891]
Traceback (most recent call last):
  File "d:\hg\ssc\brk\app_brk\venv\lib\site-packages\flask\app.py", line 2447, in wsgi_app
    response = self.full_dispatch_request()
  File "d:\hg\ssc\brk\app_brk\venv\lib\site-packages\flask\app.py", line 1952, in full_dispatch_request
    rv = self.handle_user_exception(e)
  File "d:\hg\ssc\brk\app_brk\venv\lib\site-packages\flask\app.py", line 1821, in handle_user_exception
    reraise(exc_type, exc_value, tb)
  File "d:\hg\ssc\brk\app_brk\venv\lib\site-packages\flask\_compat.py", line 39, in reraise
    raise value
  File "d:\hg\ssc\brk\app_brk\venv\lib\site-packages\flask\app.py", line 1950, in full_dispatch_request
    rv = self.dispatch_request()
  File "d:\hg\ssc\brk\app_brk\venv\lib\site-packages\flask\app.py", line 1936, in dispatch_request
    return self.view_functions[rule.endpoint](**req.view_args)
  File "d:\hg\ssc\brk\app_brk\venv\lib\site-packages\flask_login\utils.py", line 272, in decorated_view
    return func(*args, **kwargs)
  File "D:\HG\SSC\BRK\app_brk\app\routes.py", line 71, in uploads
    fileupload = request.files['fileupload']
TypeError: makedirs() got an unexpected keyword argument 'exists_ok'
2020-12-21 03:22:32,423 INFO: Microblog startup [in D:\HG\SSC\BRK\app_brk\app\__init__.py:43]
2020-12-21 03:48:54,802 INFO: Microblog startup [in D:\HG\SSC\BRK\app_brk\app\__init__.py:43]
2020-12-21 03:49:21,552 INFO: Microblog startup [in D:\HG\SSC\BRK\app_brk\app\__init__.py:43]
2020-12-21 03:49:38,054 INFO: Microblog startup [in D:\HG\SSC\BRK\app_brk\app\__init__.py:43]
2020-12-21 03:50:44,749 INFO: Microblog startup [in D:\HG\SSC\BRK\app_brk\app\__init__.py:43]
2020-12-21 03:51:49,753 INFO: Microblog startup [in D:\HG\SSC\BRK\app_brk\app\__init__.py:43]
2020-12-21 03:56:47,445 INFO: BRK startup [in D:\HG\SSC\BRK\app_brk\app\__init__.py:43]
2020-12-21 04:08:34,447 INFO: BRK startup [in D:\HG\SSC\BRK\app_brk\app\__init__.py:43]
2020-12-21 04:09:44,009 INFO: BRK startup [in D:\HG\SSC\BRK\app_brk\app\__init__.py:43]
2020-12-21 04:09:52,475 INFO: BRK startup [in D:\HG\SSC\BRK\app_brk\app\__init__.py:43]
2020-12-21 04:17:33,997 INFO: BRK startup [in D:\HG\SSC\BRK\app_brk\app\__init__.py:43]
2020-12-21 04:19:22,714 INFO: BRK startup [in D:\HG\SSC\BRK\app_brk\app\__init__.py:43]
2020-12-21 04:22:06,104 INFO: BRK startup [in D:\HG\SSC\BRK\app_brk\app\__init__.py:43]
2020-12-21 04:23:56,366 INFO: BRK startup [in D:\HG\SSC\BRK\app_brk\app\__init__.py:43]
2020-12-21 04:30:36,524 INFO: BRK startup [in D:\HG\SSC\BRK\app_brk\app\__init__.py:43]
2020-12-21 04:30:39,059 ERROR: Exception on /uploads [GET] [in d:\hg\ssc\brk\app_brk\venv\lib\site-packages\flask\app.py:1891]
Traceback (most recent call last):
  File "d:\hg\ssc\brk\app_brk\venv\lib\site-packages\flask\app.py", line 2447, in wsgi_app
    response = self.full_dispatch_request()
  File "d:\hg\ssc\brk\app_brk\venv\lib\site-packages\flask\app.py", line 1952, in full_dispatch_request
    rv = self.handle_user_exception(e)
  File "d:\hg\ssc\brk\app_brk\venv\lib\site-packages\flask\app.py", line 1821, in handle_user_exception
    reraise(exc_type, exc_value, tb)
  File "d:\hg\ssc\brk\app_brk\venv\lib\site-packages\flask\_compat.py", line 39, in reraise
    raise value
  File "d:\hg\ssc\brk\app_brk\venv\lib\site-packages\flask\app.py", line 1950, in full_dispatch_request
    rv = self.dispatch_request()
  File "d:\hg\ssc\brk\app_brk\venv\lib\site-packages\flask\app.py", line 1936, in dispatch_request
    return self.view_functions[rule.endpoint](**req.view_args)
  File "d:\hg\ssc\brk\app_brk\venv\lib\site-packages\flask_login\utils.py", line 272, in decorated_view
    return func(*args, **kwargs)
  File "D:\HG\SSC\BRK\app_brk\app\routes.py", line 79, in uploads
    return render_template('uploads.html')
  File "d:\hg\ssc\brk\app_brk\venv\lib\site-packages\flask\templating.py", line 137, in render_template
    return _render(
  File "d:\hg\ssc\brk\app_brk\venv\lib\site-packages\flask\templating.py", line 120, in _render
    rv = template.render(context)
  File "d:\hg\ssc\brk\app_brk\venv\lib\site-packages\jinja2\environment.py", line 1090, in render
    self.environment.handle_exception()
  File "d:\hg\ssc\brk\app_brk\venv\lib\site-packages\jinja2\environment.py", line 832, in handle_exception
    reraise(*rewrite_traceback_stack(source=source))
  File "d:\hg\ssc\brk\app_brk\venv\lib\site-packages\jinja2\_compat.py", line 28, in reraise
    raise value.with_traceback(tb)
  File "D:\HG\SSC\BRK\app_brk\app\templates\uploads.html", line 1, in top-level template code
    {% extends "base.html" %}
  File "D:\HG\SSC\BRK\app_brk\app\templates\base.html", line 34, in top-level template code
    {% block content %}{% endblock %}
  File "D:\HG\SSC\BRK\app_brk\app\templates\uploads.html", line 5, in block "content"
    <form method = POST enctype = multipart / form-data action = " {{  url_for ( 'upload' )  }} ">
  File "d:\hg\ssc\brk\app_brk\venv\lib\site-packages\flask\helpers.py", line 370, in url_for
    return appctx.app.handle_url_build_error(error, endpoint, values)
  File "d:\hg\ssc\brk\app_brk\venv\lib\site-packages\flask\app.py", line 2216, in handle_url_build_error
    reraise(exc_type, exc_value, tb)
  File "d:\hg\ssc\brk\app_brk\venv\lib\site-packages\flask\_compat.py", line 39, in reraise
    raise value
  File "d:\hg\ssc\brk\app_brk\venv\lib\site-packages\flask\helpers.py", line 357, in url_for
    rv = url_adapter.build(
  File "d:\hg\ssc\brk\app_brk\venv\lib\site-packages\werkzeug\routing.py", line 2179, in build
    raise BuildError(endpoint, values, method, self)
werkzeug.routing.BuildError: Could not build url for endpoint 'upload'. Did you mean 'uploads' instead?
2020-12-21 04:31:01,769 INFO: BRK startup [in D:\HG\SSC\BRK\app_brk\app\__init__.py:43]
2020-12-21 04:58:06,385 INFO: BRK startup [in D:\HG\SSC\BRK\app_brk\app\__init__.py:44]
2020-12-21 05:13:22,915 INFO: BRK startup [in D:\HG\SSC\BRK\app_brk\app\__init__.py:44]
