2020-12-21 03:15:59,064 ERROR: Exception on / [GET] [in d:\hg\ssc\brk\app_brk\venv\lib\site-packages\flask\app.py:1891]
Traceback (most recent call last):
  File "d:\hg\ssc\brk\app_brk\venv\lib\site-packages\sqlalchemy\orm\relationships.py", line 2635, in _determine_joins
    self.primaryjoin = join_condition(
  File "<string>", line 2, in join_condition
  File "<string>", line 2, in _join_condition
  File "d:\hg\ssc\brk\app_brk\venv\lib\site-packages\sqlalchemy\util\deprecations.py", line 139, in warned
    return fn(*args, **kwargs)
  File "d:\hg\ssc\brk\app_brk\venv\lib\site-packages\sqlalchemy\sql\selectable.py", line 976, in _join_condition
    raise exc.NoForeignKeysError(
sqlalchemy.exc.NoForeignKeysError: Can't find any foreign key relationships between 'users' and 'posts'.

The above exception was the direct cause of the following exception:

Traceback (most recent call last):
  File "d:\hg\ssc\brk\app_brk\venv\lib\site-packages\flask\app.py", line 2447, in wsgi_app
    response = self.full_dispatch_request()
  File "d:\hg\ssc\brk\app_brk\venv\lib\site-packages\flask\app.py", line 1952, in full_dispatch_request
    rv = self.handle_user_exception(e)
  File "d:\hg\ssc\brk\app_brk\venv\lib\site-packages\flask\app.py", line 1821, in handle_user_exception
    reraise(exc_type, exc_value, tb)
  File "d:\hg\ssc\brk\app_brk\venv\lib\site-packages\flask\_compat.py", line 39, in reraise
    raise value
  File "d:\hg\ssc\brk\app_brk\venv\lib\site-packages\flask\app.py", line 1950, in full_dispatch_request
    rv = self.dispatch_request()
  File "d:\hg\ssc\brk\app_brk\venv\lib\site-packages\flask\app.py", line 1936, in dispatch_request
    return self.view_functions[rule.endpoint](**req.view_args)
  File "d:\hg\ssc\brk\app_brk\venv\lib\site-packages\flask_login\utils.py", line 270, in decorated_view
    elif not current_user.is_authenticated:
  File "d:\hg\ssc\brk\app_brk\venv\lib\site-packages\werkzeug\local.py", line 347, in __getattr__
    return getattr(self._get_current_object(), name)
  File "d:\hg\ssc\brk\app_brk\venv\lib\site-packages\werkzeug\local.py", line 306, in _get_current_object
    return self.__local()
  File "d:\hg\ssc\brk\app_brk\venv\lib\site-packages\flask_login\utils.py", line 26, in <lambda>
    current_user = LocalProxy(lambda: _get_user())
  File "d:\hg\ssc\brk\app_brk\venv\lib\site-packages\flask_login\utils.py", line 346, in _get_user
    current_app.login_manager._load_user()
  File "d:\hg\ssc\brk\app_brk\venv\lib\site-packages\flask_login\login_manager.py", line 318, in _load_user
    user = self._user_callback(user_id)
  File "D:\HG\SSC\BRK\app_brk\app\models.py", line 103, in load_user
    return User.query.get(int(id))
  File "d:\hg\ssc\brk\app_brk\venv\lib\site-packages\flask_sqlalchemy\__init__.py", line 512, in __get__
    mapper = orm.class_mapper(type)
  File "d:\hg\ssc\brk\app_brk\venv\lib\site-packages\sqlalchemy\orm\base.py", line 451, in class_mapper
    mapper = _inspect_mapped_class(class_, configure=configure)
  File "d:\hg\ssc\brk\app_brk\venv\lib\site-packages\sqlalchemy\orm\base.py", line 430, in _inspect_mapped_class
    mapper._configure_all()
  File "d:\hg\ssc\brk\app_brk\venv\lib\site-packages\sqlalchemy\orm\mapper.py", line 1352, in _configure_all
    configure_mappers()
  File "d:\hg\ssc\brk\app_brk\venv\lib\site-packages\sqlalchemy\orm\mapper.py", line 3299, in configure_mappers
    mapper._post_configure_properties()
  File "d:\hg\ssc\brk\app_brk\venv\lib\site-packages\sqlalchemy\orm\mapper.py", line 1965, in _post_configure_properties
    prop.init()
  File "d:\hg\ssc\brk\app_brk\venv\lib\site-packages\sqlalchemy\orm\interfaces.py", line 197, in init
    self.do_init()
  File "d:\hg\ssc\brk\app_brk\venv\lib\site-packages\sqlalchemy\orm\relationships.py", line 2077, in do_init
    self._setup_join_conditions()
  File "d:\hg\ssc\brk\app_brk\venv\lib\site-packages\sqlalchemy\orm\relationships.py", line 2141, in _setup_join_conditions
    self._join_condition = jc = JoinCondition(
  File "d:\hg\ssc\brk\app_brk\venv\lib\site-packages\sqlalchemy\orm\relationships.py", line 2524, in __init__
    self._determine_joins()
  File "d:\hg\ssc\brk\app_brk\venv\lib\site-packages\sqlalchemy\orm\relationships.py", line 2657, in _determine_joins
    util.raise_(
  File "d:\hg\ssc\brk\app_brk\venv\lib\site-packages\sqlalchemy\util\compat.py", line 182, in raise_
    raise exception
sqlalchemy.exc.NoForeignKeysError: Could not determine join condition between parent/child tables on relationship User.posts - there are no foreign keys linking these tables.  Ensure that referencing columns are associated with a ForeignKey or ForeignKeyConstraint, or specify a 'primaryjoin' expression.
2020-12-21 03:16:27,917 INFO: Microblog startup [in D:\HG\SSC\BRK\app_brk\app\__init__.py:43]
2020-12-21 03:16:30,784 ERROR: Exception on / [GET] [in d:\hg\ssc\brk\app_brk\venv\lib\site-packages\flask\app.py:1891]
Traceback (most recent call last):
  File "d:\hg\ssc\brk\app_brk\venv\lib\site-packages\sqlalchemy\orm\relationships.py", line 2635, in _determine_joins
    self.primaryjoin = join_condition(
  File "<string>", line 2, in join_condition
  File "<string>", line 2, in _join_condition
  File "d:\hg\ssc\brk\app_brk\venv\lib\site-packages\sqlalchemy\util\deprecations.py", line 139, in warned
    return fn(*args, **kwargs)
  File "d:\hg\ssc\brk\app_brk\venv\lib\site-packages\sqlalchemy\sql\selectable.py", line 976, in _join_condition
    raise exc.NoForeignKeysError(
sqlalchemy.exc.NoForeignKeysError: Can't find any foreign key relationships between 'users' and 'posts'.

The above exception was the direct cause of the following exception:

Traceback (most recent call last):
  File "d:\hg\ssc\brk\app_brk\venv\lib\site-packages\flask\app.py", line 2447, in wsgi_app
    response = self.full_dispatch_request()
  File "d:\hg\ssc\brk\app_brk\venv\lib\site-packages\flask\app.py", line 1952, in full_dispatch_request
    rv = self.handle_user_exception(e)
  File "d:\hg\ssc\brk\app_brk\venv\lib\site-packages\flask\app.py", line 1821, in handle_user_exception
    reraise(exc_type, exc_value, tb)
  File "d:\hg\ssc\brk\app_brk\venv\lib\site-packages\flask\_compat.py", line 39, in reraise
    raise value
  File "d:\hg\ssc\brk\app_brk\venv\lib\site-packages\flask\app.py", line 1950, in full_dispatch_request
    rv = self.dispatch_request()
  File "d:\hg\ssc\brk\app_brk\venv\lib\site-packages\flask\app.py", line 1936, in dispatch_request
    return self.view_functions[rule.endpoint](**req.view_args)
  File "d:\hg\ssc\brk\app_brk\venv\lib\site-packages\flask_login\utils.py", line 270, in decorated_view
    elif not current_user.is_authenticated:
  File "d:\hg\ssc\brk\app_brk\venv\lib\site-packages\werkzeug\local.py", line 347, in __getattr__
    return getattr(self._get_current_object(), name)
  File "d:\hg\ssc\brk\app_brk\venv\lib\site-packages\werkzeug\local.py", line 306, in _get_current_object
    return self.__local()
  File "d:\hg\ssc\brk\app_brk\venv\lib\site-packages\flask_login\utils.py", line 26, in <lambda>
    current_user = LocalProxy(lambda: _get_user())
  File "d:\hg\ssc\brk\app_brk\venv\lib\site-packages\flask_login\utils.py", line 346, in _get_user
    current_app.login_manager._load_user()
  File "d:\hg\ssc\brk\app_brk\venv\lib\site-packages\flask_login\login_manager.py", line 318, in _load_user
    user = self._user_callback(user_id)
  File "D:\HG\SSC\BRK\app_brk\app\models.py", line 103, in load_user
    return User.query.get(int(id))
  File "d:\hg\ssc\brk\app_brk\venv\lib\site-packages\flask_sqlalchemy\__init__.py", line 512, in __get__
    mapper = orm.class_mapper(type)
  File "d:\hg\ssc\brk\app_brk\venv\lib\site-packages\sqlalchemy\orm\base.py", line 451, in class_mapper
    mapper = _inspect_mapped_class(class_, configure=configure)
  File "d:\hg\ssc\brk\app_brk\venv\lib\site-packages\sqlalchemy\orm\base.py", line 430, in _inspect_mapped_class
    mapper._configure_all()
  File "d:\hg\ssc\brk\app_brk\venv\lib\site-packages\sqlalchemy\orm\mapper.py", line 1352, in _configure_all
    configure_mappers()
  File "d:\hg\ssc\brk\app_brk\venv\lib\site-packages\sqlalchemy\orm\mapper.py", line 3299, in configure_mappers
    mapper._post_configure_properties()
  File "d:\hg\ssc\brk\app_brk\venv\lib\site-packages\sqlalchemy\orm\mapper.py", line 1965, in _post_configure_properties
    prop.init()
  File "d:\hg\ssc\brk\app_brk\venv\lib\site-packages\sqlalchemy\orm\interfaces.py", line 197, in init
    self.do_init()
  File "d:\hg\ssc\brk\app_brk\venv\lib\site-packages\sqlalchemy\orm\relationships.py", line 2077, in do_init
    self._setup_join_conditions()
  File "d:\hg\ssc\brk\app_brk\venv\lib\site-packages\sqlalchemy\orm\relationships.py", line 2141, in _setup_join_conditions
    self._join_condition = jc = JoinCondition(
  File "d:\hg\ssc\brk\app_brk\venv\lib\site-packages\sqlalchemy\orm\relationships.py", line 2524, in __init__
    self._determine_joins()
  File "d:\hg\ssc\brk\app_brk\venv\lib\site-packages\sqlalchemy\orm\relationships.py", line 2657, in _determine_joins
    util.raise_(
  File "d:\hg\ssc\brk\app_brk\venv\lib\site-packages\sqlalchemy\util\compat.py", line 182, in raise_
    raise exception
sqlalchemy.exc.NoForeignKeysError: Could not determine join condition between parent/child tables on relationship User.posts - there are no foreign keys linking these tables.  Ensure that referencing columns are associated with a ForeignKey or ForeignKeyConstraint, or specify a 'primaryjoin' expression.
2020-12-21 03:18:14,943 INFO: Microblog startup [in D:\HG\SSC\BRK\app_brk\app\__init__.py:43]
